<?xml version="1.0" encoding="UTF-8"?>
<svg width="102px" height="102px" viewBox="0 0 102 102" version="1.1" xmlns="http://www.w3.org/2000/svg" xmlns:xlink="http://www.w3.org/1999/xlink">
    <g id="Page-1" stroke="none" stroke-width="1" fill="none" fill-rule="evenodd">
        <g id="info.circle" transform="translate(-1696.000000, -1040.000000)" fill="#000000" fill-rule="nonzero">
            <g id="Symbols" transform="translate(498.000000, 618.000000)">
                <g id="Medium-M" transform="translate(1197.330000, 422.000000)">
                    <path
                            fill="#fff" d="M51.2285,101.2832 C78.8652,101.2832 101.717,78.43164 101.717,50.7949
                    C101.717,23.1094 78.8164,0.2578 51.1797,0.2578 C23.543,0.2578 0.74023,23.1094 0.74023,50.7949 C0.74023,78.43164 23.5918,101.2832 51.2285,101.2832 Z M51.2285,91.17578 C28.8164,91.17578 10.8477,73.1582 10.8477,50.7949 C10.8477,28.3828 28.7676,10.3652 51.1797,10.3652 C73.5918,10.3652 91.6094,28.3828 91.6582,50.7949 C91.6582,73.1582 73.6406,91.17578 51.2285,91.17578 Z M50.9355,34.2422 C54.6953,34.2422 57.625,31.2148 57.625,27.5527 C57.625,23.793 54.6953,20.8145 50.9355,20.8145 C47.2734,20.8145 44.2461,23.793 44.2461,27.5527 C44.2461,31.2148 47.2734,34.2422 50.9355,34.2422 Z M42.5859,77.30859 L62.4102,77.30859 C64.6074,77.30859 66.3164,75.6973 66.3164,73.5 C66.3164,71.4004 64.6074,69.7402 62.4102,69.7402 L56.9902,69.7402 L56.9902,46.6934 C56.9902,43.7637 55.5254,41.8105 52.7422,41.8105 L43.4648,41.8105 C41.2676,41.8105 39.5586,43.4707 39.5586,45.5703 C39.5586,47.8164 41.2676,49.3789 43.4648,49.3789 L48.3965,49.3789 L48.3965,69.7402 L42.5859,69.7402 C40.3887,69.7402 38.6797,71.4004 38.6797,73.5 C38.6797,75.6973 40.3887,77.30859 42.5859,77.30859 Z" id="Shape"></path>
                </g>
            </g>
        </g>
    </g>
</svg>
